{
  "data_file": "examples/1/data/data.csv",
  "train_parameters_file": "examples/1/train_parameters.json",
  "use_saved_initial_weights": true,
  "use_cached_weights": false,
  "weights_file": "examples/1/weights/weights.npz",
  "shuffle_data": false
}